…
    ## # A tibble: 2 × 8
    ##   species island bill_length_mm bill_depth_mm flipper_length_… body_mass_g sex  
    ##   <fct>   <fct>           <dbl>         <dbl>            <int>       <int> <fct>
    ## 1 Adelie  Torge…           39.5          17.4              186        3800 fema…
    ## 2 Adelie  Torge…           36.7          19.3              193        3450 fema…
    ## # … with 1 more variable: year <int>

``` r
# To output the entire row for a specific column(s)
penguins[1:3]
```

    ## # A tibble: 344 × 3
    ##    species island    bill_length_mm
    ##    <fct>   <fct>              <dbl>
    ##  1 Adelie  Torgersen           39.1
    ##  2 Adelie  Torgersen           39.5
    ##  3 Adelie  Torgersen           40.3
    ##  4 Adelie  Torgersen           NA  
    ##  5 Adelie  Torgersen           36.7
    ##  6 Adelie  Torgersen           39.3
    ##  7 Adelie  Torgersen           38.9
    ##  8 Adelie  Torgersen           39.2
    ##  9 Adelie  Torgersen           34.1
    ## 10 Adelie  Torgersen           42  
    ## # … with 334 more rows
…
``` r
# To rename a column(s)
# Either temporarily
rename(who_data, sp_m1524 = new_sp_m1524)
```

    ## # A tibble: 7,240 × 60
    ##    country     iso2  iso3   year new_sp_m014 sp_m1524 new_sp_m2534 new_sp_m3544
    ##    <chr>       <chr> <chr> <int>       <int>    <int>        <int>        <int>
    ##  1 Afghanistan AF    AFG    1980          NA       NA           NA           NA
    ##  2 Afghanistan AF    AFG    1981          NA       NA           NA           NA
    ##  3 Afghanistan AF    AFG    1982          NA       NA           NA           NA
    ##  4 Afghanistan AF    AFG    1983          NA       NA           NA           NA
    ##  5 Afghanistan AF    AFG    1984          NA       NA           NA           NA
    ##  6 Afghanistan AF    AFG    1985          NA       NA           NA           NA
    ##  7 Afghanistan AF    AFG    1986          NA       NA           NA           NA
    ##  8 Afghanistan AF    AFG    1987          NA       NA           NA           NA
    ##  9 Afghanistan AF    AFG    1988          NA       NA           NA           NA
    ## 10 Afghanistan AF    AFG    1989          NA       NA           NA           NA
    ## # … with 7,230 more rows, and 52 more variables: new_sp_m4554 <int>,
    ## #   new_sp_m5564 <int>, new_sp_m65 <int>, new_sp_f014 <int>,
    ## #   new_sp_f1524 <int>, new_sp_f2534 <int>, new_sp_f3544 <int>,
    ## #   new_sp_f4554 <int>, new_sp_f5564 <int>, new_sp_f65 <int>,
    ## #   new_sn_m014 <int>, new_sn_m1524 <int>, new_sn_m2534 <int>,
    ## #   new_sn_m3544 <int>, new_sn_m4554 <int>, new_sn_m5564 <int>,
    ## #   new_sn_m65 <int>, new_sn_f014 <int>, new_sn_f1524 <int>, …
…
*Always set `na.rm = TRUE` to remove the null values during calculation
and avoid getting NA in the results.*

``` r
# To load a dataset either from the web or by uploading it
# Note that each file may contain only one sheet and be in the CSV format
world_happiness = read_csv(
                    "World_Happiness_data.csv",
                    show_col_types = FALSE
                  )
world_happiness
```

    ## # A tibble: 470 × 14
    ##    Country   `Year of Year` Region Year  `Dystopia Resi…` `Economy (GDP …` F4   
    ##    <chr>              <dbl> <chr>  <chr>            <dbl>            <dbl> <lgl>
    ##  1 Switzerl…           2015 Weste… 1/1/…             2.52              1.4 NA   
    ##  2 Iceland             2015 Weste… 1/1/…             2.70              1.3 NA   
    ##  3 Denmark             2015 Weste… 1/1/…             2.49              1.3 NA   
    ##  4 Norway              2015 Weste… 1/1/…             2.47              1.5 NA   
    ##  5 Canada              2015 North… 1/1/…             2.45              1.3 NA   
    ##  6 Finland             2015 Weste… 1/1/…             2.62              1.3 NA   
    ##  7 Netherla…           2015 Weste… 1/1/…             2.47              1.3 NA   
    ##  8 Sweden              2015 Weste… 1/1/…             2.37              1.3 NA   
    ##  9 New Zeal…           2015 Austr… 1/1/…             2.26              1.3 NA   
    ## 10 Australia           2015 Austr… 1/1/…             2.27              1.3 NA   
    ## # … with 460 more rows, and 7 more variables: Family <dbl>, Freedom <dbl>,
    ## #   Generosity <dbl>, `Happiness Rank` <dbl>, `Happiness Score` <dbl>,
    ## #   `Health (Life Expectancy)` <dbl>, `Trust (Government Corruption)` <dbl>
…
``` r
# We may filter a dataframe based on logical condtion(s) using the filter() function
filter(who_data, country == c("Afghanistan",'Albania') & year > 1990)
```

    ## # A tibble: 23 × 60
    ##    country     iso   iso3   year new_sp_m014 sp_m1524 new_sp_m2534 new_sp_m3544
    ##    <chr>       <chr> <chr> <int>       <int>    <int>        <int>        <int>
    ##  1 Afghanistan AF    AFG    1992          NA       NA           NA           NA
    ##  2 Afghanistan AF    AFG    1994          NA       NA           NA           NA
    ##  3 Afghanistan AF    AFG    1996          NA       NA           NA           NA
    ##  4 Afghanistan AF    AFG    1998          30      129          128           90
    ##  5 Afghanistan AF    AFG    2000          52      228          183          149
    ##  6 Afghanistan AF    AFG    2002          90      476          481          368
    ##  7 Afghanistan AF    AFG    2004         139      537          568          360
    ##  8 Afghanistan AF    AFG    2006         193      837          791          574
    ##  9 Afghanistan AF    AFG    2008         187      941          773          545
    ## 10 Afghanistan AF    AFG    2010         197      986          819          491
    ## # … with 13 more rows, and 52 more variables: new_sp_m4554 <int>,
    ## #   new_sp_m5564 <int>, new_sp_m65 <int>, new_sp_f014 <int>,
    ## #   new_sp_f1524 <int>, new_sp_f2534 <int>, new_sp_f3544 <int>,
    ## #   new_sp_f4554 <int>, new_sp_f5564 <int>, new_sp_f65 <int>,
    ## #   new_sn_m014 <int>, new_sn_m1524 <int>, new_sn_m2534 <int>,
    ## #   new_sn_m3544 <int>, new_sn_m4554 <int>, new_sn_m5564 <int>,
    ## #   new_sn_m65 <int>, new_sn_f014 <int>, new_sn_f1524 <int>, …
…
    ## [1] "African Country"

``` r
# To show the unique values of a column
print(unique(who_data['country']))
```

    ## # A tibble: 219 × 1
    ##    country            
    ##    <chr>              
    ##  1 Afghanistan        
    ##  2 Albania            
    ##  3 Algeria            
    ##  4 American Samoa     
    ##  5 Andorra            
    ##  6 Angola             
    ##  7 Anguilla           
    ##  8 Antigua and Barbuda
    ##  9 Argentina          
    ## 10 Armenia            
    ## # … with 209 more rows
…
``` r
# Let's say for easier interpretation we wanna create a dataframe that has only
# selected columns of the original dataframe.
cut_to_price = select(diamond_df, colnames(diamond_df)[3:8])
cut_to_price
```

    ## # A tibble: 53,940 × 6
    ##    cut       color clarity depth table price
    ##    <ord>     <ord> <ord>   <dbl> <dbl> <int>
    ##  1 Ideal     E     SI2      61.5    55   326
    ##  2 Premium   E     SI1      59.8    61   326
    ##  3 Good      E     VS1      56.9    65   327
    ##  4 Premium   I     VS2      62.4    58   334
    ##  5 Good      J     SI2      63.3    58   335
    ##  6 Very Good J     VVS2     62.8    57   336
    ##  7 Very Good I     VVS1     62.3    57   336
    ##  8 Very Good H     SI1      61.9    55   337
    ##  9 Fair      E     VS2      65.1    61   337
    ## 10 Very Good H     VS1      59.4    61   338
    ## # … with 53,930 more rows

``` r
# On the other hand, if we wanna exclude specific columns
select(diamond_df, -colnames(diamond_df)[c(3,8)])
```

    ## # A tibble: 53,940 × 9
    ##    carat category  color clarity depth table     x     y     z
    ##    <dbl> <chr>     <ord> <ord>   <dbl> <dbl> <dbl> <dbl> <dbl>
    ##  1  0.23 low_price E     SI2      61.5    55  3.95  3.98  2.43
    ##  2  0.21 low_price E     SI1      59.8    61  3.89  3.84  2.31
    ##  3  0.23 low_price E     VS1      56.9    65  4.05  4.07  2.31
    ##  4  0.29 low_price I     VS2      62.4    58  4.2   4.23  2.63
    ##  5  0.31 low_price J     SI2      63.3    58  4.34  4.35  2.75
    ##  6  0.24 low_price J     VVS2     62.8    57  3.94  3.96  2.48
    ##  7  0.24 low_price I     VVS1     62.3    57  3.95  3.98  2.47
    ##  8  0.26 low_price H     SI1      61.9    55  4.07  4.11  2.53
    ##  9  0.22 low_price E     VS2      65.1    61  3.87  3.78  2.49
    ## 10  0.23 low_price H     VS1      59.4    61  4     4.05  2.39
    ## # … with 53,930 more rows
…
    ##  [1] "challenge.csv"         "chickens.csv"          "epa78.txt"            
    ##  [4] "example.log"           "fwf-sample.txt"        "massey-rating.txt"    
    ##  [7] "mtcars.csv"            "mtcars.csv.bz2"        "mtcars.csv.zip"       
    ## [10] "whitespace-sample.txt"

``` r
# To load anyone of those datasets
read_csv(readr_example('mtcars.csv'), show_col_types = FALSE)
```

    ## # A tibble: 32 × 11
    ##      mpg   cyl  disp    hp  drat    wt  qsec    vs    am  gear  carb
    ##    <dbl> <dbl> <dbl> <dbl> <dbl> <dbl> <dbl> <dbl> <dbl> <dbl> <dbl>
    ##  1  21       6  160    110  3.9   2.62  16.5     0     1     4     4
    ##  2  21       6  160    110  3.9   2.88  17.0     0     1     4     4
    ##  3  22.8     4  108     93  3.85  2.32  18.6     1     1     4     1
    ##  4  21.4     6  258    110  3.08  3.22  19.4     1     0     3     1
    ##  5  18.7     8  360    175  3.15  3.44  17.0     0     0     3     2
    ##  6  18.1     6  225    105  2.76  3.46  20.2     1     0     3     1
    ##  7  14.3     8  360    245  3.21  3.57  15.8     0     0     3     4
    ##  8  24.4     4  147.    62  3.69  3.19  20       1     0     4     2
    ##  9  22.8     4  141.    95  3.92  3.15  22.9     1     0     4     2
    ## 10  19.2     6  168.   123  3.92  3.44  18.3     1     0     4     4
    ## # … with 22 more rows

``` r
# we may even read a compressed file and the read_csv function will decompress
# it.
mt_cars = read_csv(readr_example('mtcars.csv.zip'), show_col_types = FALSE)
mt_cars
```

    ## # A tibble: 32 × 11
    ##      mpg   cyl  disp    hp  drat    wt  qsec    vs    am  gear  carb
    ##    <dbl> <dbl> <dbl> <dbl> <dbl> <dbl> <dbl> <dbl> <dbl> <dbl> <dbl>
    ##  1  21       6  160    110  3.9   2.62  16.5     0     1     4     4
    ##  2  21       6  160    110  3.9   2.88  17.0     0     1     4     4
    ##  3  22.8     4  108     93  3.85  2.32  18.6     1     1     4     1
    ##  4  21.4     6  258    110  3.08  3.22  19.4     1     0     3     1
    ##  5  18.7     8  360    175  3.15  3.44  17.0     0     0     3     2
    ##  6  18.1     6  225    105  2.76  3.46  20.2     1     0     3     1
    ##  7  14.3     8  360    245  3.21  3.57  15.8     0     0     3     4
    ##  8  24.4     4  147.    62  3.69  3.19  20       1     0     4     2
    ##  9  22.8     4  141.    95  3.92  3.15  22.9     1     0     4     2
    ## 10  19.2     6  168.   123  3.92  3.44  18.3     1     0     4     4
    ## # … with 22 more rows
…
``` r
# Now if we wanna make our columns names lower case and consists only of letters
# numbers and underscores
co2_df = clean_names(co2_df)

co2_df %>% 
  group_by(country_name) %>%
  summarize(average_emissions = mean(co2_per_capita_metric_tons, na.rm = TRUE))
```

    ## # A tibble: 214 × 2
    ##    country_name        average_emissions
    ##    <chr>                           <dbl>
    ##  1 Afghanistan                     0.139
    ##  2 Albania                         1.66 
    ##  3 Algeria                         2.39 
    ##  4 American Samoa                NaN    
    ##  5 Andorra                         6.93 
    ##  6 Angola                          0.610
    ##  7 Antigua and Barbuda             5.11 
    ##  8 Argentina                       3.56 
    ##  9 Armenia                         1.23 
    ## 10 Aruba                          21.8  
    ## # … with 204 more rows
…
``` r
# If we wanna merge multiple column into a single one
# Set remove to FALSE if you also wanna keep the original columns
co2_df = co2_df %>%
  unite(
    combined, 
    c("country_name", "co2_per_capita_metric_tons", "year"),
    sep = "/"
  )
co2_df
```

    ## # A tibble: 11,127 × 5
    ##    country_code combined      region                    co2_kt total
    ##    <chr>        <chr>         <chr>                      <dbl> <dbl>
    ##  1 ABW          Aruba/NA/1960 Latin America & Caribbean     NA     0
    ##  2 ABW          Aruba/NA/1961 Latin America & Caribbean     NA     0
    ##  3 ABW          Aruba/NA/1962 Latin America & Caribbean     NA     0
    ##  4 ABW          Aruba/NA/1963 Latin America & Caribbean     NA     0
    ##  5 ABW          Aruba/NA/1964 Latin America & Caribbean     NA     0
    ##  6 ABW          Aruba/NA/1965 Latin America & Caribbean     NA     0
    ##  7 ABW          Aruba/NA/1966 Latin America & Caribbean     NA     0
    ##  8 ABW          Aruba/NA/1967 Latin America & Caribbean     NA     0
    ##  9 ABW          Aruba/NA/1968 Latin America & Caribbean     NA     0
    ## 10 ABW          Aruba/NA/1969 Latin America & Caribbean     NA     0
    ## # … with 11,117 more rows

``` r
# Now let's do the reverse process
co2_df = co2_df %>%
  separate(
    combined, 
    c("country_name", "co2_per_capita_metric_tons", "year"),
    sep = "/"
  )
co2_df
```

    ## # A tibble: 11,127 × 7
    ##    country_code country_name co2_per_capita_metric_to… year  region co2_kt total
    ##    <chr>        <chr>        <chr>                     <chr> <chr>   <dbl> <dbl>
    ##  1 ABW          Aruba        NA                        1960  Latin…     NA     0
    ##  2 ABW          Aruba        NA                        1961  Latin…     NA     0
    ##  3 ABW          Aruba        NA                        1962  Latin…     NA     0
    ##  4 ABW          Aruba        NA                        1963  Latin…     NA     0
    ##  5 ABW          Aruba        NA                        1964  Latin…     NA     0
    ##  6 ABW          Aruba        NA                        1965  Latin…     NA     0
    ##  7 ABW          Aruba        NA                        1966  Latin…     NA     0
    ##  8 ABW          Aruba        NA                        1967  Latin…     NA     0
    ##  9 ABW          Aruba        NA                        1968  Latin…     NA     0
    ## 10 ABW          Aruba        NA                        1969  Latin…     NA     0
    ## # … with 11,117 more rows
…
``` r
# We may also use the geom_count to visualize the relationship between 
# the flipper_length and the body_mass in addition to the frequency of 
# value.

count_table = drop_na(penguins) %>%
  count(flipper_length_mm, body_mass_g) 
count_table
```

    ## # A tibble: 298 × 3
    ##    flipper_length_mm body_mass_g     n
    ##                <int>       <int> <int>
    ##  1               172        3150     1
    ##  2               174        3400     1
    ##  3               176        3450     1
    ##  4               178        2900     1
    ##  5               178        3250     2
    ##  6               178        3900     1
    ##  7               180        3550     1
    ##  8               180        3600     1
    ##  9               180        3800     1
    ## 10               180        3950     1
    ## # … with 288 more rows
…
